…
``` r
urban_data %>%
  group_by(health, YEAR) %>%
  summarize(n = n())
```

```
## `summarise()` has grouped output by 'health'. You can override using the
## `.groups` argument.
```

```
## # A tibble: 54 × 3
## # Groups:   health [4]
##    health     YEAR     n
##    <chr>     <dbl> <int>
##  1 condition  1999     6
##  2 condition  2002     1
##  3 condition  2003     3
##  4 condition  2005     2
##  5 condition  2008     5
##  6 condition  2010    10
##  7 condition  2011     4
##  8 condition  2012    13
##  9 condition  2013     1
## 10 condition  2014     3
## # ℹ 44 more rows
```
…
(Side note: this is an example of how to simulate data to test code. We can go into this in more detail later in the course.)


``` r
survey_data %>%
  pivot_longer(cols = -year, names_to = "site", values_to = "count")
```

```
## # A tibble: 120 × 3
##     year site   count
##    <int> <chr>  <int>
##  1  2000 site1     79
##  2  2000 site2     34
##  3  2000 site3     70
##  4  2000 site4     82
##  5  2000 site5     59
##  6  2000 site6     59
##  7  2000 site7     23
##  8  2000 site8     25
##  9  2000 site9     49
## 10  2000 site10    46
## # ℹ 110 more rows
```
…
``` r
survey_data %>%
  pivot_longer(cols = -c(year, observer), names_to = "site", values_to = "count") 
```

```
## # A tibble: 120 × 4
##     year observer site   count
##    <int> <chr>    <chr>  <int>
##  1  2000 A        site1     79
##  2  2000 A        site2     34
##  3  2000 A        site3     70
##  4  2000 A        site4     82
##  5  2000 A        site5     59
##  6  2000 A        site6     59
##  7  2000 A        site7     23
##  8  2000 A        site8     25
##  9  2000 A        site9     49
## 10  2000 A        site10    46
## # ℹ 110 more rows
```
