9 Data Manipulation with R, Part 2 | Data Management and Reproducible Science
…
We talked about wide and long formats when discussing data entry and spreadsheets, but it is still useful to know how to transform your data sets once they get into R. Why? Well, sometimes you will have a data set that isn’t set up in long form. Other times, wide form is useful for visualization or making tables.

9.5.1 Long to wide

Let’s start with a data set in long form: one observation per row, one variable per column. The urban wildlife data set follows this structure. Let’s say we want to know how many studies we have per year and health metric:

urban_data %>%
  group_by(health, YEAR) %>%
  summarize(n = n())

## `summarise()` has grouped output by 'health'. You can override using the
## `.groups` argument.

## # A tibble: 54 × 3
## # Groups:   health [4]
##    health     YEAR     n
##    <chr>     <dbl> <int>
##  1 condition  1999     6
##  2 condition  2002     1
##  3 condition  2003     3
##  4 condition  2005     2
##  5 condition  2008     5
##  6 condition  2010    10
##  7 condition  2011     4
##  8 condition  2012    13
##  9 condition  2013     1
## 10 condition  2014     3
## # ℹ 44 more rows
…
(Side note: this is an example of how to simulate data to test code. We can go into this in more detail later in the course.)

survey_data %>%
  pivot_longer(cols = -year, names_to = "site", values_to = "count")

## # A tibble: 120 × 3
##     year site   count
##    <int> <chr>  <int>
##  1  2000 site1     25
##  2  2000 site2     55
##  3  2000 site3     10
##  4  2000 site4     73
##  5  2000 site5     67
##  6  2000 site6     15
##  7  2000 site7     26
##  8  2000 site8     84
##  9  2000 site9     86
## 10  2000 site10    34
## # ℹ 110 more rows
…
## # A tibble: 6 × 3
##    year site  count
##   <int> <chr> <int>
## 1  2000 site1    25
## 2  2000 site2    55
## 3  2000 site3    10
## 4  2000 site4    73
## 5  2000 site5    67
## 6  2000 site6    15

survey_data %>%
  pivot_longer(cols = -c(year, observer), names_to = "site", values_to = "count") 

## # A tibble: 120 × 4
##     year observer site   count
##    <int> <chr>    <chr>  <int>
##  1  2000 C        site1     25
##  2  2000 C        site2     55
##  3  2000 C        site3     10
##  4  2000 C        site4     73
##  5  2000 C        site5     67
##  6  2000 C        site6     15
##  7  2000 C        site7     26
##  8  2000 C        site8     84
##  9  2000 C        site9     86
## 10  2000 C        site10    34
## # ℹ 110 more rows
…
