…
```
## [1] 516   4
```

This function can be especially useful to clean up your data, for example when you have created intermediate columns, or when you read in a data set that has a lot of extraneous information. Notice that columns are now reordered: `host.species` was specified last within `select`, so it is now the last column.

We can also use `select` to remove columns, using the - symbol.


``` r
select(urban_data, -TITLE, -AUTHORS, -YEAR, -JOURNAL)
```

```
## # A tibble: 516 × 38
##    study health    condition toxtype ptype  stress2 SAMPLE_SIZE EFFECT_DIRECTION
##    <dbl> <chr>     <chr>     <chr>   <chr>  <chr>         <dbl>            <dbl>
##  1  1236 parasites <NA>      <NA>    Preva… <NA>             59                0
##  2  1236 parasites <NA>      <NA>    Preva… <NA>             59               -1
##  3  1236 parasites <NA>      <NA>    Richn… <NA>            278               -1
##  4  1236 condition Adjusted  <NA>    <NA>   <NA>             49                1
##  5  1236 parasites <NA>      <NA>    Inten… <NA>             16               -1
##  6  1236 parasites <NA>      <NA>    Inten… <NA>             10                1
##  7  1236 parasites <NA>      <NA>    Preva… <NA>             59                1
##  8  1236 parasites <NA>      <NA>    Preva… <NA>             59               -1
##  9  1326 toxicants <NA>      metal   <NA>   <NA>             39               -1
## 10  1326 toxicants <NA>      metal   <NA>   <NA>             39               -1
## # ℹ 506 more rows
## # ℹ 30 more variables: pval <dbl>, r <dbl>, yi <dbl>, vi <dbl>, rlower <dbl>,
## #   rupper <dbl>, yir <dbl>, ott_id <dbl>, host.species <chr>,
## #   host.class <chr>, aqterr <chr>, parasite2 <chr>, close <dbl>,
## #   nonclose <dbl>, vector <dbl>, intermediate <dbl>, routes <dbl>,
## #   mroute <chr>, mlat <dbl>, mlon <dbl>, udiff_1000 <dbl>, udiff_10000 <dbl>,
## #   uchange_1000 <dbl>, uchange_10000 <dbl>, umean_1000 <dbl>, …
```

`select()` also works with numeric vectors for the order of the columns. To select the 3rd, 4th, 5th, and 10th columns, we could run the following code:


``` r
select(urban_data, 3:5, 10)
```

```
## # A tibble: 516 × 4
##    AUTHORS          YEAR JOURNAL                          stress2
##    <chr>           <dbl> <chr>                            <chr>  
##  1 Webster et al.   2014 Wildlife Biology                 <NA>   
##  2 Webster et al.   2014 Wildlife Biology                 <NA>   
##  3 Webster et al.   2014 Wildlife Biology                 <NA>   
##  4 Webster et al.   2014 Wildlife Biology                 <NA>   
##  5 Webster et al.   2014 Wildlife Biology                 <NA>   
##  6 Webster et al.   2014 Wildlife Biology                 <NA>   
##  7 Webster et al.   2014 Wildlife Biology                 <NA>   
##  8 Webster et al.   2014 Wildlife Biology                 <NA>   
##  9 Hargitai et al.  2016 Science of the Total Environment <NA>   
## 10 Hargitai et al.  2016 Science of the Total Environment <NA>   
## # ℹ 506 more rows
```

You should be careful when using this method, since you are being less explicit about which columns you want. However, it can be useful if you have a data frame with many columns and you don’t want to type out too many names.

We can also select columns based on their properties using the `where()` function. For example, to select all character columns:


``` r
select(urban_data, where(is.character))
```

```
## # A tibble: 516 × 14
##    TITLE     AUTHORS JOURNAL health condition toxtype ptype stress2 host.species
##    <chr>     <chr>   <chr>   <chr>  <chr>     <chr>   <chr> <chr>   <chr>       
##  1 Ectopara… Webste… Wildli… paras… <NA>      <NA>    Prev… <NA>    Trichosurus…
##  2 Ectopara… Webste… Wildli… paras… <NA>      <NA>    Prev… <NA>    Trichosurus…
##  3 Ectopara… Webste… Wildli… paras… <NA>      <NA>    Rich… <NA>    Trichosurus…
##  4 Ectopara… Webste… Wildli… condi… Adjusted  <NA>    <NA>  <NA>    Trichosurus…
##  5 Ectopara… Webste… Wildli… paras… <NA>      <NA>    Inte… <NA>    Trichosurus…
##  6 Ectopara… Webste… Wildli… paras… <NA>      <NA>    Inte… <NA>    Trichosurus…
##  7 Ectopara… Webste… Wildli… paras… <NA>      <NA>    Prev… <NA>    Trichosurus…
##  8 Ectopara… Webste… Wildli… paras… <NA>      <NA>    Prev… <NA>    Trichosurus…
##  9 Effects … Hargit… Scienc… toxic… <NA>      metal   <NA>  <NA>    Parus_major 
## 10 Effects … Hargit… Scienc… toxic… <NA>      metal   <NA>  <NA>    Parus_major 
## # ℹ 506 more rows
## # ℹ 5 more variables: host.class <chr>, aqterr <chr>, parasite2 <chr>,
## #   mroute <chr>, COUNTRY <chr>
```

### Subsetting data with `filter()`

The `filter()` function subsets a data frame to rows that meet some criteria. For example, to get all rows where the taxon sampled was a bird:


``` r
filter(urban_data, host.class == "birds")
```

```
## # A tibble: 159 × 42
##    study TITLE      AUTHORS  YEAR JOURNAL health condition toxtype ptype stress2
##    <dbl> <chr>      <chr>   <dbl> <chr>   <chr>  <chr>     <chr>   <chr> <chr>  
##  1  1326 Effects o… Hargit…  2016 Scienc… toxic… <NA>      metal   <NA>  <NA>   
##  2  1326 Effects o… Hargit…  2016 Scienc… toxic… <NA>      metal   <NA>  <NA>   
##  3  1326 Effects o… Hargit…  2016 Scienc… toxic… <NA>      metal   <NA>  <NA>   
##  4  1426 Egrets as… Boncom…  2003 Archiv… toxic… <NA>      metal   <NA>  <NA>   
##  5  1426 Egrets as… Boncom…  2003 Archiv… toxic… <NA>      metal   <NA>  <NA>   
##  6  1426 Egrets as… Boncom…  2003 Archiv… toxic… <NA>      metal   <NA>  <NA>   
##  7  1426 Egrets as… Boncom…  2003 Archiv… toxic… <NA>      metal   <NA>  <NA>   
##  8  1426 Egrets as… Boncom…  2003 Archiv… toxic… <NA>      metal   <NA>  <NA>   
##  9  1480 Environme… Garcia…  2005 Bullet… toxic… <NA>      metal   <NA>  <NA>   
## 10  1480 Environme… Garcia…  2005 Bullet… toxic… <NA>      metal   <NA>  <NA>   
## # ℹ 149 more rows
## # ℹ 32 more variables: SAMPLE_SIZE <dbl>, EFFECT_DIRECTION <dbl>, pval <dbl>,
## #   r <dbl>, yi <dbl>, vi <dbl>, rlower <dbl>, rupper <dbl>, yir <dbl>,
## #   ott_id <dbl>, host.species <chr>, host.class <chr>, aqterr <chr>,
## #   parasite2 <chr>, close <dbl>, nonclose <dbl>, vector <dbl>,
## #   intermediate <dbl>, routes <dbl>, mroute <chr>, mlat <dbl>, mlon <dbl>,
## #   udiff_1000 <dbl>, udiff_10000 <dbl>, uchange_1000 <dbl>, …
```

Now we are introducing logical statements with the `==` sign! `==` means "is equal to". It is very different from `=`, which specifies arguments in functions (and can be used as an assignment operator, but that is not recommended). A few other useful operators and functions for filtering are:

* `!=`, which means "not equal to." `!` means "not" and can be applied to many logical statements.
* `%in%`, which asks if the left hand side is found anywhere in the vector on the right side.
* `is.na`, which asks if the value is missing.
* `>`, `>=`, `<`, and `<=`, which filter based on the values of numeric columns.


``` r
filter(urban_data, host.class != "mammals")
```

```
## # A tibble: 321 × 42
##    study TITLE      AUTHORS  YEAR JOURNAL health condition toxtype ptype stress2
##    <dbl> <chr>      <chr>   <dbl> <chr>   <chr>  <chr>     <chr>   <chr> <chr>  
##  1  1326 Effects o… Hargit…  2016 Scienc… toxic… <NA>      metal   <NA>  <NA>   
##  2  1326 Effects o… Hargit…  2016 Scienc… toxic… <NA>      metal   <NA>  <NA>   
##  3  1326 Effects o… Hargit…  2016 Scienc… toxic… <NA>      metal   <NA>  <NA>   
##  4  1426 Egrets as… Boncom…  2003 Archiv… toxic… <NA>      metal   <NA>  <NA>   
##  5  1426 Egrets as… Boncom…  2003 Archiv… toxic… <NA>      metal   <NA>  <NA>   
##  6  1426 Egrets as… Boncom…  2003 Archiv… toxic… <NA>      metal   <NA>  <NA>   
##  7  1426 Egrets as… Boncom…  2003 Archiv… toxic… <NA>      metal   <NA>  <NA>   
##  8  1426 Egrets as… Boncom…  2003 Archiv… toxic… <NA>      metal   <NA>  <NA>   
##  9  1480 Environme… Garcia…  2005 Bullet… toxic… <NA>      metal   <NA>  <NA>   
## 10  1480 Environme… Garcia…  2005 Bullet… toxic… <NA>      metal   <NA>  <NA>   
## # ℹ 311 more rows
## # ℹ 32 more variables: SAMPLE_SIZE <dbl>, EFFECT_DIRECTION <dbl>, pval <dbl>,
## #   r <dbl>, yi <dbl>, vi <dbl>, rlower <dbl>, rupper <dbl>, yir <dbl>,
## #   ott_id <dbl>, host.species <chr>, host.class <chr>, aqterr <chr>,
## #   parasite2 <chr>, close <dbl>, nonclose <dbl>, vector <dbl>,
## #   intermediate <dbl>, routes <dbl>, mroute <chr>, mlat <dbl>, mlon <dbl>,
## #   udiff_1000 <dbl>, udiff_10000 <dbl>, uchange_1000 <dbl>, …
```

``` r
filter(urban_data, host.class %in% c("birds","fish"))
```

```
## # A tibble: 251 × 42
##    study TITLE      AUTHORS  YEAR JOURNAL health condition toxtype ptype stress2
##    <dbl> <chr>      <chr>   <dbl> <chr>   <chr>  <chr>     <chr>   <chr> <chr>  
##  1  1326 Effects o… Hargit…  2016 Scienc… toxic… <NA>      metal   <NA>  <NA>   
##  2  1326 Effects o… Hargit…  2016 Scienc… toxic… <NA>      metal   <NA>  <NA>   
##  3  1326 Effects o… Hargit…  2016 Scienc… toxic… <NA>      metal   <NA>  <NA>   
##  4  1426 Egrets as… Boncom…  2003 Archiv… toxic… <NA>      metal   <NA>  <NA>   
##  5  1426 Egrets as… Boncom…  2003 Archiv… toxic… <NA>      metal   <NA>  <NA>   
##  6  1426 Egrets as… Boncom…  2003 Archiv… toxic… <NA>      metal   <NA>  <NA>   
##  7  1426 Egrets as… Boncom…  2003 Archiv… toxic… <NA>      metal   <NA>  <NA>   
##  8  1426 Egrets as… Boncom…  2003 Archiv… toxic… <NA>      metal   <NA>  <NA>   
##  9  1480 Environme… Garcia…  2005 Bullet… toxic… <NA>      metal   <NA>  <NA>   
## 10  1480 Environme… Garcia…  2005 Bullet… toxic… <NA>      metal   <NA>  <NA>   
## # ℹ 241 more rows
## # ℹ 32 more variables: SAMPLE_SIZE <dbl>, EFFECT_DIRECTION <dbl>, pval <dbl>,
## #   r <dbl>, yi <dbl>, vi <dbl>, rlower <dbl>, rupper <dbl>, yir <dbl>,
## #   ott_id <dbl>, host.species <chr>, host.class <chr>, aqterr <chr>,
## #   parasite2 <chr>, close <dbl>, nonclose <dbl>, vector <dbl>,
## #   intermediate <dbl>, routes <dbl>, mroute <chr>, mlat <dbl>, mlon <dbl>,
## #   udiff_1000 <dbl>, udiff_10000 <dbl>, uchange_1000 <dbl>, …
```

``` r
filter(urban_data, is.na(pval))
```

```
## # A tibble: 253 × 42
##    study TITLE      AUTHORS  YEAR JOURNAL health condition toxtype ptype stress2
##    <dbl> <chr>      <chr>   <dbl> <chr>   <chr>  <chr>     <chr>   <chr> <chr>  
##  1  1236 Ectoparas… Webste…  2014 Wildli… condi… Adjusted  <NA>    <NA>  <NA>   
##  2  1236 Ectoparas… Webste…  2014 Wildli… paras… <NA>      <NA>    Inte… <NA>   
##  3  1236 Ectoparas… Webste…  2014 Wildli… paras… <NA>      <NA>    Inte… <NA>   
##  4  1326 Effects o… Hargit…  2016 Scienc… toxic… <NA>      metal   <NA>  <NA>   
##  5  1480 Environme… Garcia…  2005 Bullet… toxic… <NA>      metal   <NA>  <NA>   
##  6  1480 Environme… Garcia…  2005 Bullet… toxic… <NA>      metal   <NA>  <NA>   
##  7  1480 Environme… Garcia…  2005 Bullet… toxic… <NA>      metal   <NA>  <NA>   
##  8  1480 Environme… Garcia…  2005 Bullet… toxic… <NA>      metal   <NA>  <NA>   
##  9  1869 Great Tit… Torne-…  2013 J Orni… stress <NA>      <NA>    <NA>  other  
## 10  1903 halogenat… Olsson…  1999 Scienc… condi… Raw       <NA>    <NA>  <NA>   
## # ℹ 243 more rows
## # ℹ 32 more variables: SAMPLE_SIZE <dbl>, EFFECT_DIRECTION <dbl>, pval <dbl>,
## #   r <dbl>, yi <dbl>, vi <dbl>, rlower <dbl>, rupper <dbl>, yir <dbl>,
## #   ott_id <dbl>, host.species <chr>, host.class <chr>, aqterr <chr>,
## #   parasite2 <chr>, close <dbl>, nonclose <dbl>, vector <dbl>,
## #   intermediate <dbl>, routes <dbl>, mroute <chr>, mlat <dbl>, mlon <dbl>,
## #   udiff_1000 <dbl>, udiff_10000 <dbl>, uchange_1000 <dbl>, …
```

``` r
filter(urban_data, YEAR >= 2010)
```

```
## # A tibble: 422 × 42
##    study TITLE      AUTHORS  YEAR JOURNAL health condition toxtype ptype stress2
##    <dbl> <chr>      <chr>   <dbl> <chr>   <chr>  <chr>     <chr>   <chr> <chr>  
##  1  1236 Ectoparas… Webste…  2014 Wildli… paras… <NA>      <NA>    Prev… <NA>   
##  2  1236 Ectoparas… Webste…  2014 Wildli… paras… <NA>      <NA>    Prev… <NA>   
##  3  1236 Ectoparas… Webste…  2014 Wildli… paras… <NA>      <NA>    Rich… <NA>   
##  4  1236 Ectoparas… Webste…  2014 Wildli… condi… Adjusted  <NA>    <NA>  <NA>   
##  5  1236 Ectoparas… Webste…  2014 Wildli… paras… <NA>      <NA>    Inte… <NA>   
##  6  1236 Ectoparas… Webste…  2014 Wildli… paras… <NA>      <NA>    Inte… <NA>   
##  7  1236 Ectoparas… Webste…  2014 Wildli… paras… <NA>      <NA>    Prev… <NA>   
##  8  1236 Ectoparas… Webste…  2014 Wildli… paras… <NA>      <NA>    Prev… <NA>   
##  9  1326 Effects o… Hargit…  2016 Scienc… toxic… <NA>      metal   <NA>  <NA>   
## 10  1326 Effects o… Hargit…  2016 Scienc… toxic… <NA>      metal   <NA>  <NA>   
## # ℹ 412 more rows
## # ℹ 32 more variables: SAMPLE_SIZE <dbl>, EFFECT_DIRECTION <dbl>, pval <dbl>,
## #   r <dbl>, yi <dbl>, vi <dbl>, rlower <dbl>, rupper <dbl>, yir <dbl>,
## #   ott_id <dbl>, host.species <chr>, host.class <chr>, aqterr <chr>,
## #   parasite2 <chr>, close <dbl>, nonclose <dbl>, vector <dbl>,
## #   intermediate <dbl>, routes <dbl>, mroute <chr>, mlat <dbl>, mlon <dbl>,
## #   udiff_1000 <dbl>, udiff_10000 <dbl>, uchange_1000 <dbl>, …
```

We can also filter using multiple criteria simultaneously using `&` (AND) and `|` (OR):


``` r
filter(urban_data, host.class != "mammals" & !is.na(pval))
```

```
## # A tibble: 133 × 42
##    study TITLE      AUTHORS  YEAR JOURNAL health condition toxtype ptype stress2
##    <dbl> <chr>      <chr>   <dbl> <chr>   <chr>  <chr>     <chr>   <chr> <chr>  
##  1  1326 Effects o… Hargit…  2016 Scienc… toxic… <NA>      metal   <NA>  <NA>   
##  2  1326 Effects o… Hargit…  2016 Scienc… toxic… <NA>      metal   <NA>  <NA>   
##  3  1426 Egrets as… Boncom…  2003 Archiv… toxic… <NA>      metal   <NA>  <NA>   
##  4  1426 Egrets as… Boncom…  2003 Archiv… toxic… <NA>      metal   <NA>  <NA>   
##  5  1426 Egrets as… Boncom…  2003 Archiv… toxic… <NA>      metal   <NA>  <NA>   
##  6  1426 Egrets as… Boncom…  2003 Archiv… toxic… <NA>      metal   <NA>  <NA>   
##  7  1426 Egrets as… Boncom…  2003 Archiv… toxic… <NA>      metal   <NA>  <NA>   
##  8  1934 Helminth … Rzad e…  2014 Helmin… paras… <NA>      <NA>    Prev… <NA>   
##  9  2166 Influence… Goulso…  2012 Functi… paras… <NA>      <NA>    Prev… <NA>   
## 10  2166 Influence… Goulso…  2012 Functi… paras… <NA>      <NA>    Prev… <NA>   
## # ℹ 123 more rows
## # ℹ 32 more variables: SAMPLE_SIZE <dbl>, EFFECT_DIRECTION <dbl>, pval <dbl>,
## #   r <dbl>, yi <dbl>, vi <dbl>, rlower <dbl>, rupper <dbl>, yir <dbl>,
## #   ott_id <dbl>, host.species <chr>, host.class <chr>, aqterr <chr>,
## #   parasite2 <chr>, close <dbl>, nonclose <dbl>, vector <dbl>,
## #   intermediate <dbl>, routes <dbl>, mroute <chr>, mlat <dbl>, mlon <dbl>,
## #   udiff_1000 <dbl>, udiff_10000 <dbl>, uchange_1000 <dbl>, …
```

``` r
filter(urban_data, ptype == "Prevalence" | SAMPLE_SIZE > 100)
```

```
## # A tibble: 218 × 42
##    study TITLE      AUTHORS  YEAR JOURNAL health condition toxtype ptype stress2
##    <dbl> <chr>      <chr>   <dbl> <chr>   <chr>  <chr>     <chr>   <chr> <chr>  
##  1  1236 Ectoparas… Webste…  2014 Wildli… paras… <NA>      <NA>    Prev… <NA>   
##  2  1236 Ectoparas… Webste…  2014 Wildli… paras… <NA>      <NA>    Prev… <NA>   
##  3  1236 Ectoparas… Webste…  2014 Wildli… paras… <NA>      <NA>    Rich… <NA>   
##  4  1236 Ectoparas… Webste…  2014 Wildli… paras… <NA>      <NA>    Prev… <NA>   
##  5  1236 Ectoparas… Webste…  2014 Wildli… paras… <NA>      <NA>    Prev… <NA>   
##  6  1869 Great Tit… Torne-…  2013 J Orni… stress <NA>      <NA>    <NA>  other  
##  7  1934 Helminth … Rzad e…  2014 Helmin… paras… <NA>      <NA>    Prev… <NA>   
##  8  1955 high freq… Bagagl…  2003 Medica… paras… <NA>      <NA>    Prev… <NA>   
##  9  2129 infection… Robard…  2008 Parasi… paras… <NA>      <NA>    Inte… <NA>   
## 10  2129 infection… Robard…  2008 Parasi… paras… <NA>      <NA>    Inte… <NA>   
## # ℹ 208 more rows
## # ℹ 32 more variables: SAMPLE_SIZE <dbl>, EFFECT_DIRECTION <dbl>, pval <dbl>,
## #   r <dbl>, yi <dbl>, vi <dbl>, rlower <dbl>, rupper <dbl>, yir <dbl>,
## #   ott_id <dbl>, host.species <chr>, host.class <chr>, aqterr <chr>,
## #   parasite2 <chr>, close <dbl>, nonclose <dbl>, vector <dbl>,
## #   intermediate <dbl>, routes <dbl>, mroute <chr>, mlat <dbl>, mlon <dbl>,
## #   udiff_1000 <dbl>, udiff_10000 <dbl>, uchange_1000 <dbl>, …
```
…
`mutate` can also create multiple columns at once, separated by a comma:


``` r
urban_data <- mutate(urban_data, gdpbill10 = gdpbill10/10,
                      years_since_1998 = YEAR - 1998) #not the best column name - a little long
# To view the new columns, we will select them, 
# because this data frame has too many columns to print them all
# and our new columns are placed at the end
select(urban_data, gdpbill, gdpbill10, YEAR, years_since_1998)
```

```
## # A tibble: 516 × 4
##    gdpbill gdpbill10  YEAR years_since_1998
##      <dbl>     <dbl> <dbl>            <dbl>
##  1    926       9.26  2014               16
##  2    926       9.26  2014               16
##  3    926       9.26  2014               16
##  4    926       9.26  2014               16
##  5    926       9.26  2014               16
##  6    926       9.26  2014               16
##  7    926       9.26  2014               16
##  8    926       9.26  2014               16
##  9    130.      1.30  2016               18
## 10    130.      1.30  2016               18
## # ℹ 506 more rows
```
…
``` r
urban_data_lgl <- mutate(urban_data, across(c(close, nonclose, vector, intermediate), as.logical))
```

Note that this is a little more complicated! The first argument is still the data set (`urban_data`), but the second argument is now a vector of column names, enclosed within `c()`, and the function `across` applies the function to multiple columns. The second argument to `across` is the function that is applied to all the columns.

Another common task is to replace NAs with another value, or to replace certain character strings (e.g., `""`) with `NA`s. For example, for studies with no difference in urbanization across the study area (the `udiff_1000` column), we might want to replace `0` with a missing value. Here, we can use a combination of `mutate` with the `na_if` function from `tidyr`:


``` r
mutate(urban_data, udiff_1000 = na_if(udiff_1000, 0))
```

```
## # A tibble: 516 × 44
##    study TITLE      AUTHORS  YEAR JOURNAL health condition toxtype ptype stress2
##    <dbl> <chr>      <chr>   <dbl> <chr>   <chr>  <chr>     <chr>   <chr> <chr>  
##  1  1236 Ectoparas… Webste…  2014 Wildli… paras… <NA>      <NA>    Prev… <NA>   
##  2  1236 Ectoparas… Webste…  2014 Wildli… paras… <NA>      <NA>    Prev… <NA>   
##  3  1236 Ectoparas… Webste…  2014 Wildli… paras… <NA>      <NA>    Rich… <NA>   
##  4  1236 Ectoparas… Webste…  2014 Wildli… condi… Adjusted  <NA>    <NA>  <NA>   
##  5  1236 Ectoparas… Webste…  2014 Wildli… paras… <NA>      <NA>    Inte… <NA>   
##  6  1236 Ectoparas… Webste…  2014 Wildli… paras… <NA>      <NA>    Inte… <NA>   
##  7  1236 Ectoparas… Webste…  2014 Wildli… paras… <NA>      <NA>    Prev… <NA>   
##  8  1236 Ectoparas… Webste…  2014 Wildli… paras… <NA>      <NA>    Prev… <NA>   
##  9  1326 Effects o… Hargit…  2016 Scienc… toxic… <NA>      metal   <NA>  <NA>   
## 10  1326 Effects o… Hargit…  2016 Scienc… toxic… <NA>      metal   <NA>  <NA>   
## # ℹ 506 more rows
## # ℹ 34 more variables: SAMPLE_SIZE <dbl>, EFFECT_DIRECTION <dbl>, pval <dbl>,
## #   r <dbl>, yi <dbl>, vi <dbl>, rlower <dbl>, rupper <dbl>, yir <dbl>,
## #   ott_id <dbl>, host.species <chr>, host.class <chr>, aqterr <chr>,
## #   parasite2 <chr>, close <dbl>, nonclose <dbl>, vector <dbl>,
## #   intermediate <dbl>, routes <dbl>, mroute <chr>, mlat <dbl>, mlon <dbl>,
## #   udiff_1000 <dbl>, udiff_10000 <dbl>, uchange_1000 <dbl>, …
```
…
